****************************************************
**                                                **
**               ARTEVELDEHOGESCHOOL              **
**                                                **
**   Bachelor in de grafische en digitale media   **
**						  **
**		Academiejaar 2014-15	  	  **
**						  **
****************************************************

Docenten:

* Philippe De Pauw - Waterschoot
* Stijn Anseel
