<?xml version="1.0" encoding="utf-8"?>
<!-- Generator: Adobe Illustrator 17.1.0, SVG Export Plug-In . SVG Version: 6.00 Build 0)  -->
<!DOCTYPE svg PUBLIC "-//W3C//DTD SVG 1.1//EN" "http://www.w3.org/Graphics/SVG/1.1/DTD/svg11.dtd">
<svg version="1.1" id="Layer_1" xmlns="http://www.w3.org/2000/svg" xmlns:xlink="http://www.w3.org/1999/xlink" x="0px" y="0px"
	 viewBox="0 0 75 41.9" enable-background="new 0 0 75 41.9" xml:space="preserve">
<path fill="#747474" d="M74.3,20.8C74.3,20.8,74.3,20.7,74.3,20.8c0-0.1,0-0.1,0-0.1c0,0,0,0,0-0.1c0,0,0-0.1,0-0.1c0,0,0,0,0,0
	c-0.1-0.6-0.4-1.1-0.8-1.5c-2.4-2.8-5.2-5.3-8-7.6c-6.2-4.9-13.2-9-21-10.7c-4.5-1-9-1-13.5-0.2c-4.1,0.7-8.1,2.3-11.8,4.2
	c-5.8,3-11.1,7-15.7,11.6C2.7,17.2,1.8,18.1,1,19c-1,1.2-1,2.7,0,3.9c2.4,2.8,5.2,5.3,8,7.6c6.2,4.9,13.2,9,21,10.7
	c4.5,1,9,1,13.5,0.2c4.1-0.7,8.1-2.3,11.8-4.2c5.8-3,11.1-7,15.7-11.6c0.9-0.8,1.7-1.7,2.5-2.6c0.4-0.4,0.7-1,0.8-1.5c0,0,0,0,0,0
	c0,0,0-0.1,0-0.1c0,0,0,0,0-0.1c0,0,0,0,0,0c0,0,0-0.1,0-0.1c0,0,0-0.1,0-0.1C74.3,20.9,74.3,20.8,74.3,20.8z M37.3,35.2
	c-7.9,0-14.3-6.4-14.3-14.3c0-7.9,6.4-14.3,14.3-14.3s14.3,6.4,14.3,14.3S45.2,35.2,37.3,35.2z"/>
<circle fill="#747474" cx="37.3" cy="20.9" r="4.7"/>
</svg>
